newmtl Wood
Kd 0.3018868 0.2069028 0.1694553
d 1

newmtl PlayerColorMaterial
Kd 0.130162 0.6132076 0.5885624
d 0.4705882

newmtl PipeMaterial
Kd 0.3396226 0.3334933 0.3220007
d 1

newmtl Default_Prototype
map_Kd GridBox_Default.png
Kd 1 1 1
d 1

