%YAML 1.1
%TAG !u! tag:unity3d.com,2011:
--- !u!114 &11400000
MonoBehaviour:
  m_ObjectHideFlags: 0
  m_CorrespondingSourceObject: {fileID: 0}
  m_PrefabInternal: {fileID: 0}
  m_GameObject: {fileID: 0}
  m_Enabled: 1
  m_EditorHideFlags: 0
  m_Script: {fileID: -395903333, guid: 4f0627da958b4bb78c260446066f065f, type: 3}
  m_Name: Default Color Palette
  m_EditorClassIdentifier: 
  current: {r: 1, g: 1, b: 1, a: 1}
  colors:
  - {r: 0.6037736, g: 0.4872212, b: 0.17942329, a: 1}
  - {r: 0.16037738, g: 0.16037738, b: 0.16037738, a: 1}
  - {r: 0.498, g: 0.859, b: 1, a: 0.5882353}
  - {r: 0.224, g: 0.8, b: 0.8, a: 1}
  - {r: 0.239, g: 0.6, b: 0.439, a: 1}
  - {r: 0.18, g: 0.8, b: 0.251, a: 1}
  - {r: 0.004, g: 1, b: 0.439, a: 1}
  - {r: 1, g: 0.863, b: 0, a: 1}
  - {r: 1, g: 0.522, b: 0.106, a: 1}
  - {r: 1, g: 0.255, b: 0.212, a: 1}
  - {r: 0.522, g: 0.078, b: 0.294, a: 1}
  - {r: 0.941, g: 0.071, b: 0.745, a: 1}
  - {r: 0.694, g: 0.051, b: 0.788, a: 1}
  - {r: 0.067, g: 0.067, b: 0.067, a: 1}
  - {r: 0.667, g: 0.667, b: 0.667, a: 1}
  - {r: 0.867, g: 0.867, b: 0.867, a: 1}
