%YAML 1.1
%TAG !u! tag:unity3d.com,2011:
--- !u!114 &11400000
MonoBehaviour:
  m_ObjectHideFlags: 0
  m_CorrespondingSourceObject: {fileID: 0}
  m_PrefabInternal: {fileID: 0}
  m_GameObject: {fileID: 0}
  m_Enabled: 1
  m_EditorHideFlags: 0
  m_Script: {fileID: -1357528570, guid: e98d45d69e2c4936a7382af00fd45e58, type: 3}
  m_Name: Default Material Palette
  m_EditorClassIdentifier: 
  array:
  - {fileID: 2100000, guid: d50aab96733217245957b054d1e3b484, type: 2}
  - {fileID: 2100000, guid: fa7c3265b3f4c4b43a99a248d54b9d86, type: 2}
  - {fileID: 2100000, guid: d1f76fd044e777a48a5dd6a56e4dfbdc, type: 2}
  - {fileID: 2100000, guid: ac4a6f6934c4e8342891507ec915f7f2, type: 2}
  - {fileID: 2100000, guid: 00a7f1c77356c4044b9cd26adcc112cc, type: 2}
  - {fileID: 2100000, guid: b8b5ce33693cd0248a669a1dc516f615, type: 2}
  - {fileID: 2100000, guid: a670c8e1074f90345b68440152c57ba3, type: 2}
  - {fileID: 2100000, guid: 23df98f866abde74aab5f656089e9751, type: 2}
  - {fileID: 2100000, guid: 6778658047bbf8c4bb6721dc85c003bd, type: 2}
  - {fileID: 2100000, guid: 2c920b54ed55bd04c9ffb1b4ce694fa3, type: 2}
  - {fileID: 2100000, guid: 7abcd2a198403a346a70cf2c3a2fa361, type: 2}
  - {fileID: 2100000, guid: 3b7bf0b12a17eda4992f38e6551d09c7, type: 2}
  - {fileID: 2100000, guid: 2edbd8302bd9838458dbdbc52d8752d5, type: 2}
  - {fileID: 2100000, guid: 8d95abbd877dac748bc16d59376267de, type: 2}
  - {fileID: 2100000, guid: fa4137f0e215b0b4198fa510dee788e7, type: 2}
  - {fileID: 2100000, guid: 4f3dad04e6ae15947baff3d4ce7dfb54, type: 2}
  - {fileID: 2100000, guid: 2fb884ad2cc88ec4ba2d0695d2361efc, type: 2}
  - {fileID: 2100000, guid: 67ef57865f08bc64485cf647a021a643, type: 2}
