# 3ds Max Wavefront OBJ Exporter v0.97b - (c)2007 guruware
# File Created: 14.01.2019 03:16:28

newmtl Eaglet_TextureMaterial
	Ns 30.0000
	Ni 1.5000
	d 0.6902
	Tr 0.3098
	Tf 0.6902 0.6902 0.6902 
	illum 2
	Ka 0.5500 0.5500 0.5500
	Kd 1.0000 1.0000 1.0000
	Ks 0.0000 0.0000 0.0000
	Ke 0.0000 0.0000 0.0000
	map_Ka E:\Project\Sprint_1\Infinite Tachyon\Assets\_Models\_TempObj\Untitled.png
	map_Kd E:\Project\Sprint_1\Infinite Tachyon\Assets\_Models\_TempObj\Untitled.png

newmtl Eaglet_PlayerColorMaterial
	Ns 30.0000
	Ni 1.5000
	d 0.6706
	Tr 0.3294
	Tf 0.6706 0.6706 0.6706 
	illum 2
	Ka 0.5500 0.5500 0.5500
	Kd 0.1698 0.1698 0.1698
	Ks 0.0000 0.0000 0.0000
	Ke 0.0000 0.0000 0.0000
	map_Ka E:\Project\Sprint_1\Infinite Tachyon\Assets\_Models\_TempObj\Untitled2.png
	map_Kd E:\Project\Sprint_1\Infinite Tachyon\Assets\_Models\_TempObj\Untitled2.png
	map_Ke E:\Project\Sprint_1\Infinite Tachyon\Assets\_Models\_TempObj\Untitled2.png
