# 3ds Max Wavefront OBJ Exporter v0.97b - (c)2007 guruware
# File Created: 13.01.2019 23:33:24

newmtl Worker_WaterWheel_CogMaterial
	Ns 30.0000
	Ni 1.5000
	d 0.9020
	Tr 0.0980
	Tf 0.9020 0.9020 0.9020 
	illum 2
	Ka 0.5500 0.5500 0.5500
	Kd 0.5189 0.3843 0.1150
	Ks 0.0000 0.0000 0.0000
	Ke 0.0000 0.0000 0.0000

newmtl Worker_WaterWheel_PipeMaterial
	Ns 30.0000
	Ni 1.5000
	d 1.0000
	Tr 0.0000
	Tf 1.0000 1.0000 1.0000 
	illum 2
	Ka 0.5500 0.5500 0.5500
	Kd 0.4434 0.4434 0.4434
	Ks 0.0000 0.0000 0.0000
	Ke 0.0000 0.0000 0.0000
