newmtl ShipMaterial
Kd 0.09433961 0.09433961 0.09433961
d 0.9647059

newmtl PipeMaterial
Kd 0.4433962 0.4433962 0.4433962
d 1

newmtl PlayerColorMaterial
Kd 1 1 1
d 0.509804

newmtl CrystalBlue
map_Ke -o 0 0 -s 0 15 Spark.png
Kd 0 0 0
d 0.3098039

newmtl CrystalPurple
map_Ke -o 0 0 -s 0 15 Spark.png
Kd 0 0 0
d 0.5921569

