newmtl ShipMaterial
Kd 0.09433961 0.09433961 0.09433961
d 0.9647059

newmtl PlayerColorMaterial
map_Kd -o 0 0 -s 1 1 Untitled2.png
map_Ke -o 0 0 -s 1 1 Untitled2.png
Kd 0.1698113 0.1698113 0.1698113
d 0.6705883

newmtl CrystalBlue
map_Ke -o 0 0 -s 0 15 Spark.png
Kd 0 0 0
d 0.3098039

newmtl CrystalPurple
map_Ke -o 0 0 -s 0 15 Spark.png
Kd 0 0 0
d 0.5921569

