%YAML 1.1
%TAG !u! tag:unity3d.com,2011:
--- !u!1045 &1
EditorBuildSettings:
  m_ObjectHideFlags: 0
  serializedVersion: 2
  m_Scenes:
  - enabled: 1
    path: Assets/_Scenes/DemoScenes/DemoScene_Lobby.unity
    guid: 363e94c93cac9364cb4d5710759fe60c
  - enabled: 1
    path: Assets/_Scenes/DemoScenes/DemoScene_CaptureOutPost.unity
    guid: 560c675d9ae00464a8cb3d3c2bea8945
  m_configObjects: {}
